{
    "prepare_queue": {
        "installed": [],
        "uninstalled": []
    },
    "config_munge": {
        "files": {}
    },
    "installed_plugins": {
        "cordova-plugin-google-analytics": {
            "PACKAGE_NAME": "br.com.orionx.noticiasonline"
        }
    },
    "dependent_plugins": {}
}